{
  "definitions": {},
  "$schema": "http://json-schema.org/draft-07/schema#",
  "$id": "journey.json",
  "type": "object",
  "title": "The journey validation schema",
  "required": [
    "id",
    "people"
  ],
  "properties": {
    "id": {
      "$id": "#/properties/id",
      "type": "integer",
      "title": "The Id Schema",
      "default": 0,
      "examples": [
        1
      ],
      "minimum": 1.0
    },
    "people": {
      "$id": "#/properties/people",
      "type": "integer",
      "title": "The People Schema",
      "default": 0,
      "examples": [
        4
      ],
      "minimum": 1.0,
      "maximum": 6.0
    }
  }
}