{
  "definitions": {},
  "$schema": "http://json-schema.org/draft-07/schema#",
  "$id": "loadcars.json",
  "type": "array",
  "title": "Load cars schema",
  "minItems": 1,
  "items": {
    "$id": "#/cars",
    "type": "object",
    "title": "The cars Schema",
    "required": [
      "id",
      "seats"
    ],
    "properties": {
      "id": {
        "$id": "#/cars/properties/id",
        "type": "integer",
        "title": "The Id Schema",
        "default": 0,
        "examples": [
          1
        ],
        "minimum": 1.0
      },
      "seats": {
        "$id": "#/cars/properties/seats",
        "type": "integer",
        "title": "The Seats Schema",
        "default": 0,
        "examples": [
          4
        ],
        "minimum": 1.0,
        "maximum": 6.0
      }
    }
  }
}